<?xml version="1.0" encoding="UTF-8"?>
<session version="1.0">
<refactoring comment="Delete resource &apos;test&apos;" deleteContents="false" description="Delete resource &apos;test&apos;" element1="/test" flags="7" id="org.eclipse.ltk.core.refactoring.delete.resources" resources="1" stamp="1561697372867"/>
</session>